Simulate responses from an exposure-response model — simulate.erglm_model • erglm
…
erglm_vpc_sim() is a thin wrapper around this method: it calls
simulate() internally, then drops the sampled coefficients and mu
and splices the simulated response (val) back into the response
column's original name, to produce a VPC-ready data set. Use
simulate() directly when you want the full simulation detail
(sampled parameters, expected and simulated response, one row per
observation per replicate); use erglm_vpc_sim() when you just want
a VPC-shaped data set.

    Examples

mod <- erglm_model(ae1 ~ aucss + sex, erglm_data, family = binomial())
simulate(mod, nsim = 5, seed = 963)
#> # A tibble: 1,500 × 9
#>    dat_id sim_id    mu   val `coef_(Intercept)` coef_aucss coef_sexMale aucss
#>     <int>  <int> <dbl> <int>              <dbl>      <dbl>        <dbl> <dbl>
#>  1      1      1 0.896     1              -1.77    0.00618       -0.238  673.
#>  2      2      1 1.000     1              -1.77    0.00618       -0.238 2806.
#>  3      3      1 0.146     0              -1.77    0.00618       -0.238    0 
#>  4      4      1 0.996     1              -1.77    0.00618       -0.238 1169.
#>  5      5      1 0.581     1              -1.77    0.00618       -0.238  377.
#>  6      6      1 0.563     1              -1.77    0.00618       -0.238  327.
#>  7      7      1 0.119     0              -1.77    0.00618       -0.238    0 
#>  8      8      1 0.997     1              -1.77    0.00618       -0.238 1208.
#>  9      9      1 0.119     0              -1.77    0.00618       -0.238    0 
#> 10     10      1 0.450     1              -1.77    0.00618       -0.238  254.
#> # ℹ 1,490 more rows
#> # ℹ 1 more variable: sex <fct>
…
