Getting Started • erglm
…
Example data

The package ships with a synthetic dataset, erglm_data,
used throughout the documentation. It has an exposure metric
(aucss), several covariates (sex,
age, weight, dose, …), and
response columns for each supported family: binary (ae1,
ae2), count (ae_count), continuous
(biomarker_change), and positive right-skewed continuous
(ae_duration):

erglm_data
#> # A tibble: 300 × 13
#>       id sex      age weight  dose treatment aucss cmaxss   ae1   ae2 ae_count
#>    <int> <fct>  <int>  <dbl> <dbl> <fct>     <dbl>  <dbl> <dbl> <dbl>    <int>
#>  1     1 Male      35     79   200 Drug       673.   97.3     0     1        1
#>  2     2 Female    22     58   200 Drug      2806.  301.      1     1        6
#>  3     3 Female    28     58     0 Placebo      0     0       0     0        1
#>  4     4 Female    18     57   100 Drug      1169.  198.      1     1        0
#>  5     5 Male      28     77   100 Drug       377.   51.4     0     0        0
#>  6     6 Female    19     76   200 Drug       327.   25.4     1     0        0
#>  7     7 Male      30     70     0 Placebo      0     0       0     0        0
#>  8     8 Female    34     60   100 Drug      1208.  133.      1     1        1
#>  9     9 Male      21     89     0 Placebo      0     0       0     0        0
#> 10    10 Female    34     56   200 Drug       254.   31.0     0     0        1
#> # ℹ 290 more rows
#> # ℹ 2 more variables: biomarker_change <dbl>, ae_duration <dbl>
…
See the “Stepwise covariate modelling” article
for a full treatment, including the forward/backward workflow and the
audit log (erglm_scm_history()).

Simulation

simulate() generates replicate datasets from a fitted
model, and erglm_vpc_sim() reshapes those replicates into a
data set ready for a visual predictive check:

erglm_vpc_sim(mod, nsim = 5, seed = 2048)
#> # A tibble: 1,500 × 5
#>      ae1 aucss sex    row_id sim_id
#>    <int> <dbl> <fct>   <int>  <int>
#>  1     0  673. Male        1      1
#>  2     1 2806. Female      2      1
#>  3     0    0  Female      3      1
#>  4     1 1169. Female      4      1
#>  5     1  377. Male        5      1
#>  6     1  327. Female      6      1
#>  7     0    0  Male        7      1
#>  8     1 1208. Female      8      1
#>  9     0    0  Male        9      1
#> 10     1  254. Female     10      1
#> # ℹ 1,490 more rows
…
