…
mod <- erglm_model(biomarker_change ~ aucss, erglm_data, family = gaussian())
```

## The `simulate()` method

Calling [`simulate()`](https://rdrr.io/r/stats/simulate.html) generates
one or more replicate datasets. The number of replicates is set by
`nsim`, and a `seed` can be supplied for reproducibility:

``` r

sim1 <- simulate(mod, nsim = 1, seed = 1)
sim1
#> # A tibble: 300 × 7
#>    dat_id sim_id     mu      val `coef_(Intercept)` coef_aucss aucss
#>     <int>  <int>  <dbl>    <dbl>              <dbl>      <dbl> <dbl>
#>  1      1      1 -0.437 -1.69                 -1.72    0.00190  673.
#>  2      2      1  3.62   6.00                 -1.72    0.00190 2806.
#>  3      3      1 -1.72  -1.22                 -1.72    0.00190    0 
#>  4      4      1  0.505 -0.722                -1.72    0.00190 1169.
#>  5      5      1 -0.999 -0.270                -1.72    0.00190  377.
#>  6      6      1 -1.09   0.00974              -1.72    0.00190  327.
#>  7      7      1 -1.72  -0.855                -1.72    0.00190    0 
#>  8      8      1  0.579  0.122                -1.72    0.00190 1208.
#>  9      9      1 -1.72   0.545                -1.72    0.00190    0 
#> 10     10      1 -1.23  -0.651                -1.72    0.00190  254.
#> # ℹ 290 more rows
```
…
